CIDI-Modulos/SD132-CIRC-DIGITAIS-II/SD132-Task-8/CIDI-SD132-A208.vcd
$date
	Sat Dec  6 04:39:03 2025
$end
$version
	Icarus Verilog
$end
$timescale
	1ps
$end
$scope module Shift_and_Add_tb $end
$var wire 1 ! K $end
$var wire 9 " ACC [8:0] $end
$var parameter 32 # DELAY $end
$var parameter 32 $ N $end
$var reg 4 % Mcand [3:0] $end
$var reg 4 & Mplier [3:0] $end
$var reg 1 ' St $end
$var reg 1 ( clk $end
$scope module DUT $end
$var wire 4 ) Mcand [3:0] $end
$var wire 4 * Mplier [3:0] $end
$var wire 1 ' St $end
$var wire 1 ( clk $end
$var wire 1 + M $end
$var wire 1 ! K $end
$var parameter 32 , N $end
$var reg 9 - ACC [8:0] $end
$var reg 4 . State [3:0] $end
$upscope $end
$upscope $end
$enddefinitions $end
$comment Show the parameter values. $end
$dumpall
b100 ,
b100 $
b1010 #
$end
#0
$dumpvars
b0 .
b0 -
0+
b1101 *
b1011 )
0(
0'
b1101 &
b1011 %
b0 "
0!
$end
#5000
1(
#10000
0(
1'
#15000
1+
b1 .
b1101 "
b1101 -
1(
#20000
0(
#25000
b10 .
b10111101 "
b10111101 -
1(
#30000
0(
#35000
0+
b11 .
b1011110 "
b1011110 -
1(
#40000
0(
#45000
1+
b101 .
b101111 "
b101111 -
1(
#50000
0(
#55000
b110 .
b11011111 "
b11011111 -
1(
#60000
0(
#65000
b111 .
b1101111 "
b1101111 -
1(
#70000
0(
#75000
b1000 .
b100011111 "
b100011111 -
1(
#80000
0(
#85000
1!
b1001 .
b10001111 "
b10001111 -
1(
#90000
0(
#95000
0!
b0 .
1(
#100000
0(
#105000
b1 .
b1101 "
b1101 -
1(
