CIDI-Modulos/SD132-CIRC-DIGITAIS-II/SD132-Task-9/CIDI-SD132-A209.vcd
$date
	Wed Dec  3 17:02:51 2025
$end
$version
	Icarus Verilog
$end
$timescale
	1ps
$end
$scope module divisor_rest_tb $end
$var wire 3 ! status [2:0] $end
$var wire 4 " resto [3:0] $end
$var wire 4 # quociente [3:0] $end
$var parameter 32 $ DELAY $end
$var parameter 32 % N $end
$var reg 1 & clk $end
$var reg 4 ' dividendo [3:0] $end
$var reg 5 ( divisor [4:0] $end
$var reg 1 ) rst $end
$var reg 1 * start $end
$scope module DUT $end
$var wire 1 & clk $end
$var wire 4 + dividendo [3:0] $end
$var wire 5 , divisor [4:0] $end
$var wire 1 ) rst $end
$var wire 1 * start $end
$var parameter 32 - N $end
$var parameter 64 . P $end
$var parameter 4 / S0 $end
$var parameter 4 0 S1 $end
$var parameter 4 1 S2 $end
$var parameter 4 2 S3 $end
$var parameter 4 3 S4 $end
$var parameter 4 4 S5 $end
$var parameter 4 5 S6 $end
$var parameter 4 6 S7 $end
$var reg 5 7 A [4:0] $end
$var reg 9 8 AQ [8:0] $end
$var reg 5 9 M [4:0] $end
$var reg 4 : Q [3:0] $end
$var reg 3 ; current_state [2:0] $end
$var reg 3 < next_state [2:0] $end
$var reg 4 = quociente [3:0] $end
$var reg 4 > resto [3:0] $end
$var integer 32 ? i [31:0] $end
$upscope $end
$upscope $end
$enddefinitions $end
$comment Show the parameter values. $end
$dumpall
b111 6
b110 5
b101 4
b100 3
b11 2
b10 1
b1 0
b0 /
b1000 .
b100 -
b100 %
b1010 $
$end
#0
$dumpvars
b0 ?
b0 >
b0 =
b0 <
b0 ;
bx :
b0 9
b0 8
b0 7
b11 ,
b1011 +
0*
1)
b11 (
b1011 '
0&
b0 #
b0 "
b0 !
$end
#1000
1&
#2000
0&
#3000
1&
#4000
0&
#5000
b1011 8
b11 ?
b1011 :
b11 9
b1 !
b1 ;
b10 <
1&
1*
0)
#6000
0&
#7000
b10110 8
b11 <
b10 !
b10 ;
1&
#8000
0&
#9000
b111100110 8
b100 <
b11 !
b11 ;
1&
#10000
0&
0*
#11000
b10110 8
b110 <
b100 !
b100 ;
1&
#12000
0&
#13000
b10 ?
b10 <
b110 !
b110 ;
1&
#14000
0&
#15000
b101100 8
b11 <
b10 !
b10 ;
1&
#16000
0&
#17000
b111111100 8
b100 <
b11 !
b11 ;
1&
#18000
0&
#19000
b101100 8
b110 <
b100 !
b100 ;
1&
#20000
0&
#21000
b1 ?
b10 <
b110 !
b110 ;
1&
#22000
0&
#23000
b1011000 8
b11 <
b10 !
b10 ;
1&
#24000
0&
#25000
b101000 8
b100 <
b11 !
b11 ;
1&
#26000
0&
#27000
b101 <
b100 !
b100 ;
1&
#28000
0&
#29000
b0 ?
b101001 8
b10 <
b101 !
b101 ;
1&
#30000
0&
#31000
b1010010 8
b11 <
b10 !
b10 ;
1&
#32000
0&
#33000
b100010 8
b100 <
b11 !
b11 ;
1&
#34000
0&
#35000
b101 <
b100 !
b100 ;
1&
#36000
0&
#37000
b11111111111111111111111111111111 ?
b100011 8
b111 <
b101 !
b101 ;
1&
#38000
0&
#39000
b10 "
b10 >
b11 #
b11 =
b0 <
b111 !
b111 ;
1&
#40000
0&
#41000
b0 ?
b0 8
b0 9
b0 !
b0 ;
1&
