Modules/CID-BASIC/VHDL/Task-4/waves/testbench_var_vs_signal.vcd
$date
  Fri Dec 12 20:20:35 2025
$end
$version
  GHDL v0
$end
$timescale
  1 fs
$end
$scope module standard $end
$upscope $end
$scope module textio $end
$upscope $end
$scope module std_logic_1164 $end
$upscope $end
$scope module std_logic_arith $end
$upscope $end
$scope module std_logic_unsigned $end
$upscope $end
$scope module testbench_var_vs_signal $end
$var reg 1 ! clk $end
$var reg 1 " rst $end
$var reg 3 # sig_cnt[2:0] $end
$var reg 3 $ var_cnt[2:0] $end
$scope module sigvsvar $end
$var reg 1 % clk $end
$var reg 1 & rst $end
$var reg 3 ' signal_cnt[2:0] $end
$var reg 3 ( variable_cnt[2:0] $end
$var reg 3 ) signal_counter[2:0] $end
$upscope $end
$upscope $end
$enddefinitions $end
#0
1!
1"
b000 #
b000 $
1%
1&
b000 '
b000 (
b000 )
#5000000
0!
0%
#10000000
1!
1%
#15000000
0!
0%
#20000000
1!
0"
b001 $
1%
0&
b001 (
b001 )
#25000000
0!
0%
#30000000
1!
b001 #
b010 $
1%
b001 '
b010 (
b010 )
#35000000
0!
0%
#40000000
1!
b010 #
b011 $
1%
b010 '
b011 (
b011 )
#45000000
0!
0%
#50000000
1!
b011 #
b100 $
1%
b011 '
b100 (
b100 )
#55000000
0!
0%
#60000000
1!
b100 #
b101 $
1%
b100 '
b101 (
b101 )
#65000000
0!
0%
#70000000
1!
b101 #
b110 $
1%
b101 '
b110 (
b110 )
#75000000
0!
0%
#80000000
1!
b110 #
b111 $
1%
b110 '
b111 (
b111 )
#85000000
0!
0%
#90000000
1!
b111 #
b000 $
1%
b111 '
b000 (
b000 )
#95000000
0!
0%
#100000000
1!
b000 #
b001 $
1%
b000 '
b001 (
b001 )
#105000000
0!
0%
#110000000
1!
b001 #
b010 $
1%
b001 '
b010 (
b010 )
#115000000
0!
0%
#120000000
1!
b010 #
b011 $
1%
b010 '
b011 (
b011 )
#125000000
0!
0%
#130000000
1!
b011 #
b100 $
1%
b011 '
b100 (
b100 )
#135000000
0!
0%
#140000000
1!
b100 #
b101 $
1%
b100 '
b101 (
b101 )
#145000000
0!
0%
#150000000
1!
b101 #
b110 $
1%
b101 '
b110 (
b110 )
#155000000
0!
0%
#160000000
1!
b110 #
b111 $
1%
b110 '
b111 (
b111 )
#165000000
0!
0%
#170000000
1!
b111 #
b000 $
1%
b111 '
b000 (
b000 )
#175000000
0!
0%
#180000000
1!
b000 #
b001 $
1%
b000 '
b001 (
b001 )
#185000000
0!
0%
#190000000
1!
b001 #
b010 $
1%
b001 '
b010 (
b010 )
#195000000
0!
0%
#200000000
1!
b010 #
b011 $
1%
b010 '
b011 (
b011 )
