CID-Modulos/CID-BASIC/SD122-CIRC-DIGITAIS-I/SD122-Task-15/CIDI-SD122-A115-wallace.vcd
$date
	Mon Nov 17 21:25:30 2025
$end
$version
	Icarus Verilog
$end
$timescale
	1ps
$end
$scope module wallace_tb $end
$var wire 8 ! prod [7:0] $end
$var parameter 32 " DELAY $end
$var parameter 32 # L $end
$var parameter 32 $ M $end
$var parameter 32 % N $end
$var reg 4 & A [3:0] $end
$var reg 4 ' B [3:0] $end
$var integer 32 ( error [31:0] $end
$var integer 32 ) i [31:0] $end
$var integer 32 * j [31:0] $end
$scope module UUT $end
$var wire 4 + A [3:0] $end
$var wire 4 , B [3:0] $end
$var wire 7 - p0 [6:0] $end
$var wire 7 . p1 [6:0] $end
$var wire 7 / p2 [6:0] $end
$var wire 7 0 p3 [6:0] $end
$var wire 1 1 s37 $end
$var wire 1 2 s36 $end
$var wire 1 3 s35 $end
$var wire 1 4 s34 $end
$var wire 1 5 s32 $end
$var wire 1 6 s26 $end
$var wire 1 7 s25 $end
$var wire 1 8 s24 $end
$var wire 1 9 s23 $end
$var wire 1 : s22 $end
$var wire 1 ; s15 $end
$var wire 1 < s14 $end
$var wire 1 = s13 $end
$var wire 1 > s12 $end
$var wire 1 ? s11 $end
$var wire 8 @ prod [7:0] $end
$var wire 1 A c37 $end
$var wire 1 B c36 $end
$var wire 1 C c35 $end
$var wire 1 D c34 $end
$var wire 1 E c32 $end
$var wire 1 F c26 $end
$var wire 1 G c25 $end
$var wire 1 H c24 $end
$var wire 1 I c23 $end
$var wire 1 J c22 $end
$var wire 1 K c15 $end
$var wire 1 L c14 $end
$var wire 1 M c13 $end
$var wire 1 N c12 $end
$var wire 1 O c11 $end
$var parameter 32 P M $end
$var parameter 32 Q N $end
$scope module fa12 $end
$var wire 1 R a $end
$var wire 1 S b $end
$var wire 1 N carry_out $end
$var wire 1 T cin $end
$var wire 1 > sum $end
$upscope $end
$scope module fa13 $end
$var wire 1 U a $end
$var wire 1 V b $end
$var wire 1 M carry_out $end
$var wire 1 W cin $end
$var wire 1 = sum $end
$upscope $end
$scope module fa14 $end
$var wire 1 X a $end
$var wire 1 Y b $end
$var wire 1 L carry_out $end
$var wire 1 Z cin $end
$var wire 1 < sum $end
$upscope $end
$scope module fa23 $end
$var wire 1 [ a $end
$var wire 1 N b $end
$var wire 1 I carry_out $end
$var wire 1 = cin $end
$var wire 1 9 sum $end
$upscope $end
$scope module fa24 $end
$var wire 1 M a $end
$var wire 1 H carry_out $end
$var wire 1 < cin $end
$var wire 1 8 sum $end
$var wire 1 E b $end
$upscope $end
$scope module fa25 $end
$var wire 1 L a $end
$var wire 1 H b $end
$var wire 1 G carry_out $end
$var wire 1 7 sum $end
$var wire 1 ; cin $end
$upscope $end
$scope module fa26 $end
$var wire 1 G b $end
$var wire 1 F carry_out $end
$var wire 1 \ cin $end
$var wire 1 6 sum $end
$var wire 1 K a $end
$upscope $end
$scope module ha11 $end
$var wire 1 ] a $end
$var wire 1 ^ b $end
$var wire 1 O carry $end
$var wire 1 ? sum $end
$upscope $end
$scope module ha15 $end
$var wire 1 _ a $end
$var wire 1 ` b $end
$var wire 1 K carry $end
$var wire 1 ; sum $end
$upscope $end
$scope module ha22 $end
$var wire 1 O a $end
$var wire 1 > b $end
$var wire 1 J carry $end
$var wire 1 : sum $end
$upscope $end
$scope module ha32 $end
$var wire 1 J a $end
$var wire 1 9 b $end
$var wire 1 E carry $end
$var wire 1 5 sum $end
$upscope $end
$scope module ha34 $end
$var wire 1 I a $end
$var wire 1 8 b $end
$var wire 1 D carry $end
$var wire 1 4 sum $end
$upscope $end
$scope module ha35 $end
$var wire 1 D a $end
$var wire 1 7 b $end
$var wire 1 C carry $end
$var wire 1 3 sum $end
$upscope $end
$scope module ha36 $end
$var wire 1 C a $end
$var wire 1 6 b $end
$var wire 1 B carry $end
$var wire 1 2 sum $end
$upscope $end
$scope module ha37 $end
$var wire 1 B a $end
$var wire 1 F b $end
$var wire 1 A carry $end
$var wire 1 1 sum $end
$upscope $end
$upscope $end
$upscope $end
$enddefinitions $end
$comment Show the parameter values. $end
$dumpall
b100 Q
b1000 P
b100 %
b1000 $
b10000 #
b1010 "
$end
#0
$dumpvars
0`
0_
0^
0]
0\
0[
0Z
0Y
0X
0W
0V
0U
0T
0S
0R
0O
0N
0M
0L
0K
0J
0I
0H
0G
0F
0E
0D
0C
0B
0A
b0 @
0?
0>
0=
0<
0;
0:
09
08
07
06
05
04
03
02
01
b0 0
b0 /
b0 .
b0 -
b0 ,
b0 +
b0 *
b0 )
b0 (
b0 '
b0 &
b0 !
$end
#10000
b1 '
b1 ,
b1 *
#20000
b10 '
b10 ,
b10 *
#30000
b11 '
b11 ,
b11 *
#40000
b100 '
b100 ,
b100 *
#50000
b101 '
b101 ,
b101 *
#60000
b110 '
b110 ,
b110 *
#70000
b111 '
b111 ,
b111 *
#80000
b1000 '
b1000 ,
b1000 *
#90000
b1001 '
b1001 ,
b1001 *
#100000
b1010 '
b1010 ,
b1010 *
#110000
b1011 '
b1011 ,
b1011 *
#120000
b1100 '
b1100 ,
b1100 *
#130000
b1101 '
b1101 ,
b1101 *
#140000
b1110 '
b1110 ,
b1110 *
#150000
b1111 '
b1111 ,
b1111 *
#160000
05
0:
09
0?
0>
b0 !
b0 @
0^
0T
0[
b0 -
b0 .
b0 /
b0 0
b0 '
b0 ,
b1 &
b1 +
b1 )
b0 *
#170000
b1 !
b1 @
b1 -
b1 '
b1 ,
b1 *
#180000
1?
b10 !
b10 @
1^
b0 -
b1 .
b10 '
b10 ,
b10 *
#190000
b11 !
b11 @
b1 -
b11 '
b11 ,
b11 *
#200000
1:
0?
1>
b100 !
b100 @
0^
1T
b0 -
b0 .
b1 /
b100 '
b100 ,
b100 *
#210000
b101 !
b101 @
b1 -
b101 '
b101 ,
b101 *
#220000
1?
b110 !
b110 @
1^
b0 -
b1 .
b110 '
b110 ,
b110 *
#230000
b111 !
b111 @
b1 -
b111 '
b111 ,
b111 *
#240000
15
0:
19
0?
0>
b1000 !
b1000 @
0^
0T
1[
b0 -
b0 .
b0 /
b1 0
b1000 '
b1000 ,
b1000 *
#250000
b1001 !
b1001 @
b1 -
b1001 '
b1001 ,
b1001 *
#260000
1?
b1010 !
b1010 @
1^
b0 -
b1 .
b1010 '
b1010 ,
b1010 *
#270000
b1011 !
b1011 @
b1 -
b1011 '
b1011 ,
b1011 *
#280000
1:
0?
1>
b1100 !
b1100 @
0^
1T
b0 -
b0 .
b1 /
b1100 '
b1100 ,
b1100 *
#290000
b1101 !
b1101 @
b1 -
b1101 '
b1101 ,
b1101 *
#300000
1?
b1110 !
b1110 @
1^
b0 -
b1 .
b1110 '
b1110 ,
b1110 *
#310000
b1111 !
b1111 @
b1 -
b1111 '
b1111 ,
b1111 *
#320000
05
09
04
0?
0:
08
0>
0=
0<
b0 !
b0 @
0]
0^
0S
0T
0W
0Z
0[
b0 -
b0 .
b0 /
b0 0
b0 '
b0 ,
b10 &
b10 +
b10 )
b0 *
#330000
b10 !
b10 @
1?
1]
b10 -
b1 '
b1 ,
b1 *
#340000
1:
1>
b100 !
b100 @
0?
0]
1S
b0 -
b10 .
b10 '
b10 ,
b10 *
#350000
b110 !
b110 @
1?
1]
b10 -
b11 '
b11 ,
b11 *
#360000
0:
15
0>
19
b1000 !
b1000 @
0?
1=
0]
0S
1W
b0 -
b0 .
b10 /
b100 '
b100 ,
b100 *
#370000
b1010 !
b1010 @
1?
1]
b10 -
b101 '
b101 ,
b101 *
#380000
1:
1>
b1100 !
b1100 @
0?
0]
1S
b0 -
b10 .
b110 '
b110 ,
b110 *
#390000
b1110 !
b1110 @
1?
1]
b10 -
b111 '
b111 ,
b111 *
#400000
0:
05
14
0>
09
18
b10000 !
b10000 @
0?
0=
1<
0]
0S
0W
1Z
b0 -
b0 .
b0 /
b10 0
b1000 '
b1000 ,
b1000 *
#410000
b10010 !
b10010 @
1?
1]
b10 -
b1001 '
b1001 ,
b1001 *
#420000
1:
1>
b10100 !
b10100 @
0?
0]
1S
b0 -
b10 .
b1010 '
b1010 ,
b1010 *
#430000
b10110 !
b10110 @
1?
1]
b10 -
b1011 '
b1011 ,
b1011 *
#440000
0:
15
0>
19
b11000 !
b11000 @
0?
1=
0]
0S
1W
b0 -
b0 .
b10 /
b1100 '
b1100 ,
b1100 *
#450000
b11010 !
b11010 @
1?
1]
b10 -
b1101 '
b1101 ,
b1101 *
#460000
1:
1>
b11100 !
b11100 @
0?
0]
1S
b0 -
b10 .
b1110 '
b1110 ,
b1110 *
#470000
b11110 !
b11110 @
1?
1]
b10 -
b1111 '
b1111 ,
b1111 *
#480000
04
0:
08
05
0I
0=
0<
0N
09
0]
0S
0W
0Z
0?
0O
0>
b0 !
b0 @
0^
0T
0[
b0 -
b0 .
b0 /
b0 0
b0 '
b0 ,
b11 &
b11 +
b11 )
b0 *
#490000
1?
b11 !
b11 @
1]
b11 -
b1 '
b1 ,
b1 *
#500000
1:
1>
b110 !
b110 @
0]
1^
1S
b0 -
b11 .
b10 '
b10 ,
b10 *
#510000
15
0:
1J
0?
1O
b1001 !
b1001 @
1]
b11 -
b11 '
b11 ,
b11 *
#520000
04
15
0I
1:
0J
0N
19
0O
1>
1=
b1100 !
b1100 @
0]
0^
0S
1T
1W
b0 -
b0 .
b11 /
b100 '
b100 ,
b100 *
#530000
1?
b1111 !
b1111 @
1]
b11 -
b101 '
b101 ,
b101 *
#540000
14
05
1I
09
0:
1N
0>
b10010 !
b10010 @
0]
1^
1S
b0 -
b11 .
b110 '
b110 ,
b110 *
#550000
1:
0?
1O
b10101 !
b10101 @
1]
b11 -
b111 '
b111 ,
b111 *
#560000
15
19
0I
03
0:
14
0D
0N
18
0O
0>
0=
1<
b11000 !
b11000 @
0]
0^
0S
0T
0W
1Z
1[
b0 -
b0 .
b0 /
b11 0
b1000 '
b1000 ,
b1000 *
#570000
1?
b11011 !
b11011 @
1]
b11 -
b1001 '
b1001 ,
b1001 *
#580000
1:
1>
b11110 !
b11110 @
0]
1^
1S
b0 -
b11 .
b1010 '
b1010 ,
b1010 *
#590000
13
17
1H
04
08
05
1E
0:
1J
0?
1O
b1 !
b1 @
1]
b11 -
b1011 '
b1011 ,
b1011 *
#600000
07
02
13
0C
0H
1D
05
18
04
1:
0E
1I
0J
0N
09
0O
1>
1=
b100 !
b100 @
0]
0^
0S
1T
1W
b0 -
b0 .
b11 /
b1100 '
b1100 ,
b1100 *
b1 (
#610000
1?
b111 !
b111 @
1]
b11 -
b1101 '
b1101 ,
b1101 *
b10 (
#620000
15
19
0:
1N
0>
b1010 !
b1010 @
0]
1^
1S
b0 -
b11 .
b1110 '
b1110 ,
b1110 *
b11 (
#630000
1:
0?
1O
b1101 !
b1101 @
1]
b11 -
b1111 '
b1111 ,
b1111 *
b100 (
#640000
05
0:
09
03
04
0D
0N
08
07
0I
0O
0>
0=
0<
0;
b0 !
b0 @
0]
0R
0^
0S
0V
0T
0W
0Y
0Z
0`
0[
b0 -
b0 .
b0 /
b0 0
b0 '
b0 ,
b100 &
b100 +
b100 )
b0 *
b101 (
#650000
b100 !
b100 @
1:
1>
1R
b100 -
b1 '
b1 ,
b1 *
#660000
15
b1000 !
b1000 @
0:
19
0>
1=
0R
1V
b0 -
b100 .
b10 '
b10 ,
b10 *
#670000
b1100 !
b1100 @
1:
1>
1R
b100 -
b11 '
b11 ,
b11 *
#680000
05
14
b10000 !
b10000 @
0:
09
18
0>
0=
1<
0R
0V
1Y
b0 -
b0 .
b100 /
b100 '
b100 ,
b100 *
#690000
b10100 !
b10100 @
1:
1>
1R
b100 -
b101 '
b101 ,
b101 *
#700000
15
b11000 !
b11000 @
0:
19
0>
1=
0R
1V
b0 -
b100 .
b110 '
b110 ,
b110 *
#710000
b11100 !
b11100 @
1:
1>
1R
b100 -
b111 '
b111 ,
b111 *
#720000
05
04
b0 !
b0 @
0:
09
08
13
0>
0=
0<
17
1;
0R
0V
0Y
1`
b0 -
b0 .
b0 /
b100 0
b1000 '
b1000 ,
b1000 *
#730000
b100 !
b100 @
1:
1>
1R
b100 -
b1001 '
b1001 ,
b1001 *
b110 (
#740000
15
b1000 !
b1000 @
0:
19
0>
1=
0R
1V
b0 -
b100 .
b1010 '
b1010 ,
b1010 *
b111 (
#750000
b1100 !
b1100 @
1:
1>
1R
b100 -
b1011 '
b1011 ,
b1011 *
b1000 (
#760000
05
14
b10000 !
b10000 @
0:
09
18
0>
0=
1<
0R
0V
1Y
b0 -
b0 .
b100 /
b1100 '
b1100 ,
b1100 *
b1001 (
#770000
b10100 !
b10100 @
1:
1>
1R
b100 -
b1101 '
b1101 ,
b1101 *
b1010 (
#780000
15
b11000 !
b11000 @
0:
19
0>
1=
0R
1V
b0 -
b100 .
b1110 '
b1110 ,
b1110 *
b1011 (
#790000
b11100 !
b11100 @
1:
1>
1R
b100 -
b1111 '
b1111 ,
b1111 *
b1100 (
#800000
03
08
04
0D
0=
0<
07
05
0I
0;
0:
0N
09
0R
0V
0Y
0`
0?
0>
b0 !
b0 @
0^
0T
0[
b0 -
b0 .
b0 /
b0 0
b0 '
b0 ,
b101 &
b101 +
b101 )
b0 *
b1101 (
#810000
1:
1>
b101 !
b101 @
1R
b101 -
b1 '
b1 ,
b1 *
#820000
15
0:
19
0>
1=
1?
b1010 !
b1010 @
0R
1^
1V
b0 -
b101 .
b10 '
b10 ,
b10 *
#830000
1:
1>
b1111 !
b1111 @
1R
b101 -
b11 '
b11 ,
b11 *
#840000
05
09
14
18
0=
1:
0N
1<
0?
1>
b10100 !
b10100 @
0R
0^
0V
1T
1Y
b0 -
b0 .
b101 /
b100 '
b100 ,
b100 *
#850000
15
19
0:
1N
0>
b11001 !
b11001 @
1R
b101 -
b101 '
b101 ,
b101 *
#860000
03
14
0D
15
0I
1:
0N
19
1>
1=
1?
b11110 !
b11110 @
0R
1^
1V
b0 -
b101 .
b110 '
b110 ,
b110 *
#870000
13
04
1D
05
1I
09
0:
1N
0>
b11 !
b11 @
1R
b101 -
b111 '
b111 ,
b111 *
#880000
0I
04
0D
02
08
13
0C
15
0=
0:
0N
0<
17
19
0?
0>
1;
b1000 !
b1000 @
0R
0^
0V
0T
0Y
1`
1[
b0 -
b0 .
b0 /
b101 0
b1000 '
b1000 ,
b1000 *
b1110 (
#890000
1:
1>
b1101 !
b1101 @
1R
b101 -
b1001 '
b1001 ,
b1001 *
b1111 (
#900000
14
05
1I
0:
09
0>
1=
1?
b10010 !
b10010 @
0R
1^
1V
b0 -
b101 .
b1010 '
b1010 ,
b1010 *
b10000 (
#910000
1:
1>
b10111 !
b10111 @
1R
b101 -
b1011 '
b1011 ,
b1011 *
b10001 (
#920000
15
02
19
0I
13
0C
14
0D
18
0=
1:
0N
1<
0?
1>
b11100 !
b11100 @
0R
0^
0V
1T
1Y
b0 -
b0 .
b101 /
b1100 '
b1100 ,
b1100 *
b10010 (
#930000
12
03
1C
05
04
1D
09
1I
0:
1N
0>
b100001 !
b100001 @
1R
b101 -
b1101 '
b1101 ,
b1101 *
b10011 (
#940000
05
1:
0N
09
1>
1=
1?
b100110 !
b100110 @
0R
1^
1V
b0 -
b101 .
b1110 '
b1110 ,
b1110 *
b10100 (
#950000
15
19
0:
1N
0>
b101011 !
b101011 @
1R
b101 -
b1111 '
b1111 ,
b1111 *
b10101 (
#960000
07
02
05
0H
03
0C
0N
09
0D
0?
0;
0:
0M
08
0L
0I
0R
0V
0Y
0`
0>
0=
0<
b0 !
b0 @
0]
0^
0S
0T
0W
0Z
0[
b0 -
b0 .
b0 /
b0 0
b0 '
b0 ,
b110 &
b110 +
b110 )
b0 *
b10110 (
#970000
1:
1>
b110 !
b110 @
1?
1]
1R
b110 -
b1 '
b1 ,
b1 *
#980000
15
19
1=
b1100 !
b1100 @
0?
0]
0R
1S
1V
b0 -
b110 .
b10 '
b10 ,
b10 *
#990000
14
05
1I
09
0:
0>
1N
b10010 !
b10010 @
1?
1]
1R
b110 -
b11 '
b11 ,
b11 *
#1000000
03
07
0H
15
0I
18
0N
19
0M
1<
b11000 !
b11000 @
0?
1=
0]
0R
0S
0V
1W
1Y
b0 -
b0 .
b110 /
b100 '
b100 ,
b100 *
#1010000
1:
1>
b11110 !
b11110 @
1?
1]
1R
b110 -
b101 '
b101 ,
b101 *
#1020000
13
17
04
1H
08
05
09
1M
0=
b100 !
b100 @
0?
0]
0R
1S
1V
b0 -
b110 .
b110 '
b110 ,
b110 *
#1030000
15
19
0:
0>
1N
b1010 !
b1010 @
1?
1]
1R
b110 -
b111 '
b111 ,
b111 *
b10111 (
#1040000
02
06
05
0I
14
0H
0G
13
0N
09
0M
18
0L
17
b10000 !
b10000 @
0?
0=
1<
1;
0]
0R
0S
0V
0W
0Y
1Z
1`
b0 -
b0 .
b0 /
b110 0
b1000 '
b1000 ,
b1000 *
b11000 (
#1050000
1:
1>
b10110 !
b10110 @
1?
1]
1R
b110 -
b1001 '
b1001 ,
b1001 *
b11001 (
#1060000
15
19
1=
b11100 !
b11100 @
0?
0]
0R
1S
1V
b0 -
b110 .
b1010 '
b1010 ,
b1010 *
b11010 (
#1070000
12
03
1C
04
1D
05
1I
09
0:
0>
1N
b100010 !
b100010 @
1?
1]
1R
b110 -
b1011 '
b1011 ,
b1011 *
b11011 (
#1080000
16
03
12
1G
0C
07
0D
15
0I
08
1L
0N
19
0M
0<
b101000 !
b101000 @
0?
1=
0]
0R
0S
0V
1W
1Y
b0 -
b0 .
b110 /
b1100 '
b1100 ,
b1100 *
b11100 (
#1090000
1:
1>
b101110 !
b101110 @
1?
1]
1R
b110 -
b1101 '
b1101 ,
b1101 *
b11101 (
#1100000
14
18
05
09
1M
0=
b110100 !
b110100 @
0?
0]
0R
1S
1V
b0 -
b110 .
b1110 '
b1110 ,
b1110 *
b11110 (
#1110000
15
19
0:
0>
1N
b111010 !
b111010 @
1?
1]
1R
b110 -
b1111 '
b1111 ,
b1111 *
b11111 (
#1120000
06
01
02
0B
05
0H
0G
0C
0N
0M
08
0L
07
04
0D
0=
0<
0;
0J
09
0I
0]
0R
0S
0V
0W
0Y
0Z
0`
0?
0O
0>
b0 !
b0 @
0^
0T
0[
b0 -
b0 .
b0 /
b0 0
b0 '
b0 ,
b111 &
b111 +
b111 )
b0 *
b100000 (
#1130000
1:
1>
1?
b111 !
b111 @
1]
1R
b111 -
b1 '
b1 ,
b1 *
#1140000
15
19
1=
b1110 !
b1110 @
0]
0R
1^
1S
1V
b0 -
b111 .
b10 '
b10 ,
b10 *
#1150000
14
05
1I
09
0>
1N
0?
1O
b10101 !
b10101 @
1]
1R
b111 -
b11 '
b11 ,
b11 *
#1160000
03
07
0H
15
0I
18
0N
19
0M
1<
0O
1>
1=
b11100 !
b11100 @
0]
0R
0^
0S
0V
1T
1W
1Y
b0 -
b0 .
b111 /
b100 '
b100 ,
b100 *
#1170000
13
04
1D
05
1I
09
0:
1N
0>
1?
b11 !
b11 @
1]
1R
b111 -
b101 '
b101 ,
b101 *
#1180000
17
13
1H
0D
08
15
0I
19
1M
0=
b1010 !
b1010 @
0]
0R
1^
1S
1V
b0 -
b111 .
b110 '
b110 ,
b110 *
b100001 (
#1190000
14
18
05
1E
1J
1>
0?
1O
b10001 !
b10001 @
1]
1R
b111 -
b111 '
b111 ,
b111 *
b100010 (
#1200000
02
01
0H
0B
0C
06
14
0D
19
15
0E
0G
13
0N
0J
0M
18
0L
17
0I
0O
0>
0=
1<
1;
b11000 !
b11000 @
0]
0R
0^
0S
0V
0T
0W
0Y
1Z
1`
1[
b0 -
b0 .
b0 /
b111 0
b1000 '
b1000 ,
b1000 *
b100011 (
#1210000
1:
1>
1?
b11111 !
b11111 @
1]
1R
b111 -
b1001 '
b1001 ,
b1001 *
b100100 (
#1220000
12
03
1C
04
1D
05
1I
09
1=
b100110 !
b100110 @
0]
0R
1^
1S
1V
b0 -
b111 .
b1010 '
b1010 ,
b1010 *
b100101 (
#1230000
15
19
0>
1N
0?
1O
b101101 !
b101101 @
1]
1R
b111 -
b1011 '
b1011 ,
b1011 *
b100110 (
#1240000
16
03
12
1G
0C
07
14
0D
05
08
1L
0N
09
0M
0<
0O
1>
1=
b110100 !
b110100 @
0]
0R
0^
0S
0V
1T
1W
1Y
b0 -
b0 .
b111 /
b1100 '
b1100 ,
b1100 *
b100111 (
#1250000
15
19
0:
1N
0>
1?
b111011 !
b111011 @
1]
1R
b111 -
b1101 '
b1101 ,
b1101 *
b101000 (
#1260000
13
04
1D
18
05
09
1M
0=
b100010 !
b100010 @
0]
0R
1^
1S
1V
b0 -
b111 .
b1110 '
b1110 ,
b1110 *
b101001 (
#1270000
15
1J
1>
0?
1O
b101001 !
b101001 @
1]
1R
b111 -
b1111 '
b1111 ,
b1111 *
b101010 (
#1280000
0I
07
0G
03
05
04
0D
0H
01
0;
0N
0J
0M
08
0L
02
0F
0O
0>
0=
0<
06
b0 !
b0 @
0]
0R
0U
0^
0S
0V
0X
0T
0W
0Y
0_
0Z
0`
0[
0\
b0 -
b0 .
b0 /
b0 0
b0 '
b0 ,
b1000 &
b1000 +
b1000 )
b0 *
b101011 (
#1290000
b1000 !
b1000 @
15
19
1=
1U
b1000 -
b1 '
b1 ,
b1 *
#1300000
05
b10000 !
b10000 @
14
09
18
0=
1<
0U
1X
b0 -
b1000 .
b10 '
b10 ,
b10 *
#1310000
b11000 !
b11000 @
15
19
1=
1U
b1000 -
b11 '
b11 ,
b11 *
#1320000
05
b0 !
b0 @
04
09
08
13
0=
0<
17
1;
0U
0X
1_
b0 -
b0 .
b1000 /
b100 '
b100 ,
b100 *
#1330000
b1000 !
b1000 @
15
19
1=
1U
b1000 -
b101 '
b101 ,
b101 *
b101100 (
#1340000
05
b10000 !
b10000 @
14
09
18
0=
1<
0U
1X
b0 -
b1000 .
b110 '
b110 ,
b110 *
b101101 (
#1350000
b11000 !
b11000 @
15
19
1=
1U
b1000 -
b111 '
b111 ,
b111 *
b101110 (
#1360000
05
04
09
08
03
0=
0<
07
b100000 !
b100000 @
12
0;
16
0U
0X
0_
1\
b0 -
b0 .
b0 /
b1000 0
b1000 '
b1000 ,
b1000 *
b101111 (
#1370000
b101000 !
b101000 @
15
19
1=
1U
b1000 -
b1001 '
b1001 ,
b1001 *
b110000 (
#1380000
05
b110000 !
b110000 @
14
09
18
0=
1<
0U
1X
b0 -
b1000 .
b1010 '
b1010 ,
b1010 *
b110001 (
#1390000
b111000 !
b111000 @
15
19
1=
1U
b1000 -
b1011 '
b1011 ,
b1011 *
b110010 (
#1400000
05
b100000 !
b100000 @
04
09
08
13
0=
0<
17
1;
0U
0X
1_
b0 -
b0 .
b1000 /
b1100 '
b1100 ,
b1100 *
b110011 (
#1410000
b101000 !
b101000 @
15
19
1=
1U
b1000 -
b1101 '
b1101 ,
b1101 *
b110100 (
#1420000
05
b110000 !
b110000 @
14
09
18
0=
1<
0U
1X
b0 -
b1000 .
b1110 '
b1110 ,
b1110 *
b110101 (
#1430000
b111000 !
b111000 @
15
19
1=
1U
b1000 -
b1111 '
b1111 ,
b1111 *
b110110 (
#1440000
03
08
04
0D
0=
0<
07
02
05
0I
0;
06
0:
09
0U
0X
0_
0\
0?
0>
b0 !
b0 @
0^
0T
0[
b0 -
b0 .
b0 /
b0 0
b0 '
b0 ,
b1001 &
b1001 +
b1001 )
b0 *
b110111 (
#1450000
15
19
1=
b1001 !
b1001 @
1U
b1001 -
b1 '
b1 ,
b1 *
#1460000
05
14
09
18
0=
1<
1?
b10010 !
b10010 @
0U
1^
1X
b0 -
b1001 .
b10 '
b10 ,
b10 *
#1470000
15
19
1=
b11011 !
b11011 @
1U
b1001 -
b11 '
b11 ,
b11 *
#1480000
05
04
09
08
13
0=
0<
1:
17
0?
1>
1;
b100 !
b100 @
0U
0^
0X
1T
1_
b0 -
b0 .
b1001 /
b100 '
b100 ,
b100 *
#1490000
15
19
1=
b1101 !
b1101 @
1U
b1001 -
b101 '
b101 ,
b101 *
b111000 (
#1500000
05
14
09
18
0=
1<
1?
b10110 !
b10110 @
0U
1^
1X
b0 -
b1001 .
b110 '
b110 ,
b110 *
b111001 (
#1510000
15
19
1=
b11111 !
b11111 @
1U
b1001 -
b111 '
b111 ,
b111 *
b111010 (
#1520000
04
08
03
15
0I
0=
0<
0:
07
19
12
0?
0>
0;
16
b101000 !
b101000 @
0U
0^
0X
0T
0_
1[
1\
b0 -
b0 .
b0 /
b1001 0
b1000 '
b1000 ,
b1000 *
b111011 (
#1530000
14
05
1I
09
1=
b110001 !
b110001 @
1U
b1001 -
b1001 '
b1001 ,
b1001 *
b111100 (
#1540000
03
15
0I
14
0D
19
18
0=
1<
1?
b111010 !
b111010 @
0U
1^
1X
b0 -
b1001 .
b1010 '
b1010 ,
b1010 *
b111101 (
#1550000
13
04
1D
05
1I
09
1=
b100011 !
b100011 @
1U
b1001 -
b1011 '
b1011 ,
b1011 *
b111110 (
#1560000
01
15
0I
04
0D
12
0B
19
08
13
0C
0=
0<
1:
17
0?
1>
1;
b101100 !
b101100 @
0U
0^
0X
1T
1_
b0 -
b0 .
b1001 /
b1100 '
b1100 ,
b1100 *
b111111 (
#1570000
14
05
1I
09
1=
b110101 !
b110101 @
1U
b1001 -
b1101 '
b1101 ,
b1101 *
b1000000 (
#1580000
01
12
0B
13
0C
15
0I
14
0D
19
18
0=
1<
1?
b111110 !
b111110 @
0U
1^
1X
b0 -
b1001 .
b1110 '
b1110 ,
b1110 *
b1000001 (
#1590000
11
02
1B
03
1C
04
1D
05
1I
09
1=
b1000111 !
b1000111 @
1U
b1001 -
b1111 '
b1111 ,
b1111 *
b1000010 (
#1600000
07
05
0H
01
03
0C
09
02
0B
0D
0I
0?
0;
06
0:
0M
08
0L
0U
0X
0_
0\
0>
0=
0<
b0 !
b0 @
0]
0^
0S
0T
0W
0Z
0[
b0 -
b0 .
b0 /
b0 0
b0 '
b0 ,
b1010 &
b1010 +
b1010 )
b0 *
b1000011 (
#1610000
15
19
1=
b1010 !
b1010 @
1?
1]
1U
b1010 -
b1 '
b1 ,
b1 *
#1620000
05
14
09
1:
18
0=
1>
1<
b10100 !
b10100 @
0?
0]
0U
1S
1X
b0 -
b1010 .
b10 '
b10 ,
b10 *
#1630000
15
19
1=
b11110 !
b11110 @
1?
1]
1U
b1010 -
b11 '
b11 ,
b11 *
#1640000
04
08
0:
15
13
0>
0<
19
0M
17
b1000 !
b1000 @
0?
1=
1;
0]
0U
0S
0X
1W
1_
b0 -
b0 .
b1010 /
b100 '
b100 ,
b100 *
#1650000
14
18
05
09
1M
0=
b10010 !
b10010 @
1?
1]
1U
b1010 -
b101 '
b101 ,
b101 *
b1000100 (
#1660000
02
06
13
0G
17
15
14
0H
19
0M
1:
18
1=
1>
1<
b11100 !
b11100 @
0?
0]
0U
1S
1X
b0 -
b1010 .
b110 '
b110 ,
b110 *
b1000101 (
#1670000
12
16
03
1G
07
04
1H
08
05
09
1M
0=
b100110 !
b100110 @
1?
1]
1U
b1010 -
b111 '
b111 ,
b111 *
b1000110 (
#1680000
0G
0:
05
03
14
0H
01
0>
09
0M
07
18
0L
12
0F
b110000 !
b110000 @
0?
0=
0;
1<
16
0]
0U
0S
0X
0W
0_
1Z
1\
b0 -
b0 .
b0 /
b1010 0
b1000 '
b1000 ,
b1000 *
b1000111 (
#1690000
15
19
1=
b111010 !
b111010 @
1?
1]
1U
b1010 -
b1001 '
b1001 ,
b1001 *
b1001000 (
#1700000
13
17
05
04
09
1:
08
1L
0=
1>
0<
b100100 !
b100100 @
0?
0]
0U
1S
1X
b0 -
b1010 .
b1010 '
b1010 ,
b1010 *
b1001001 (
#1710000
15
19
1=
b101110 !
b101110 @
1?
1]
1U
b1010 -
b1011 '
b1011 ,
b1011 *
b1001010 (
#1720000
01
14
12
0F
18
16
0H
0:
0L
15
0G
13
0>
1<
19
0M
17
b111000 !
b111000 @
0?
1=
1;
0]
0U
0S
0X
1W
1_
b0 -
b0 .
b1010 /
b1100 '
b1100 ,
b1100 *
b1001011 (
#1730000
11
02
1F
06
03
1G
07
04
1H
08
05
09
1M
0=
b1000010 !
b1000010 @
1?
1]
1U
b1010 -
b1101 '
b1101 ,
b1101 *
b1001100 (
#1740000
03
07
15
04
0H
19
0M
1:
08
1L
1=
1>
0<
b1001100 !
b1001100 @
0?
0]
0U
1S
1X
b0 -
b1010 .
b1110 '
b1110 ,
b1110 *
b1001101 (
#1750000
14
18
05
09
1M
0=
b1010110 !
b1010110 @
1?
1]
1U
b1010 -
b1111 '
b1111 ,
b1111 *
b1001110 (
#1760000
0:
0I
0G
03
04
0H
01
0M
07
08
0L
02
0F
05
0=
0;
0<
06
0N
09
0]
0U
0S
0X
0W
0_
0Z
0\
0?
0O
0>
b0 !
b0 @
0^
0T
0[
b0 -
b0 .
b0 /
b0 0
b0 '
b0 ,
b1011 &
b1011 +
b1011 )
b0 *
b1001111 (
#1770000
15
19
1=
1?
b1011 !
b1011 @
1]
1U
b1011 -
b1 '
b1 ,
b1 *
#1780000
05
14
09
1:
18
0=
1>
1<
b10110 !
b10110 @
0]
0U
1^
1S
1X
b0 -
b1011 .
b10 '
b10 ,
b10 *
#1790000
13
17
1H
04
08
1E
19
0:
1J
1=
0?
1O
b1 !
b1 @
1]
1U
b1011 -
b11 '
b11 ,
b11 *
#1800000
15
02
04
0H
06
0I
1:
0E
0G
13
0<
0J
0N
19
0M
17
0O
1>
1=
1;
b1100 !
b1100 @
0]
0U
0^
0S
0X
1T
1W
1_
b0 -
b0 .
b1011 /
b100 '
b100 ,
b100 *
b1010000 (
#1810000
14
18
05
09
1M
0=
1?
b10111 !
b10111 @
1]
1U
b1011 -
b101 '
b101 ,
b101 *
b1010001 (
