CIDI-Modulos/SD132-CIRC-DIGITAIS-II/SD132-Task-3/task-Extra/Projeto/bcd_counter.vcd
$date
	Fri Nov 21 21:20:32 2025
$end
$version
	ModelSim Version 2020.1
$end
$timescale
	1ps
$end

$scope module tb_contador_bcd $end
$var parameter 32 ! CLK_PERIOD $end
$var reg 1 " clk $end
$var reg 1 # reset $end
$var wire 1 $ Q1 [3] $end
$var wire 1 % Q1 [2] $end
$var wire 1 & Q1 [1] $end
$var wire 1 ' Q1 [0] $end
$var wire 1 ( Q2 [3] $end
$var wire 1 ) Q2 [2] $end
$var wire 1 * Q2 [1] $end
$var wire 1 + Q2 [0] $end
$var wire 1 , decimal_value [4] $end
$var wire 1 - decimal_value [3] $end
$var wire 1 . decimal_value [2] $end
$var wire 1 / decimal_value [1] $end
$var wire 1 0 decimal_value [0] $end

$scope module DUT $end
$var wire 1 1 clk $end
$var wire 1 2 reset $end
$var wire 1 $ Q1 [3] $end
$var wire 1 % Q1 [2] $end
$var wire 1 & Q1 [1] $end
$var wire 1 ' Q1 [0] $end
$var wire 1 ( Q2 [3] $end
$var wire 1 ) Q2 [2] $end
$var wire 1 * Q2 [1] $end
$var wire 1 + Q2 [0] $end
$var reg 4 3 count1 [3:0] $end
$var reg 4 4 count2 [3:0] $end
$var wire 1 5 trap_condition $end
$var wire 1 6 carry_out $end
$upscope $end
$upscope $end
$enddefinitions $end
#0
$dumpvars
0"
1#
b0 3
b0 4
b1010 !
0'
0&
0%
0$
0+
0*
0)
0(
05
06
00
0/
0.
0-
0,
12
01
$end
#5000
1"
11
#10000
0"
01
#15000
1"
11
#20000
0#
0"
02
01
#25000
1"
11
b1 3
1'
10
#30000
0"
01
#35000
1"
11
b10 3
0'
1&
00
1/
#40000
0"
01
#45000
1"
11
b11 3
1'
10
#50000
0"
01
#55000
1"
11
b100 3
0'
0&
1%
00
0/
1.
#60000
0"
01
#65000
1"
11
b101 3
1'
10
#70000
0"
01
#75000
1"
11
b110 3
0'
1&
00
1/
#80000
0"
01
#85000
1"
11
b111 3
1'
10
#90000
0"
01
#95000
1"
11
b1000 3
0'
0&
0%
1$
00
0/
0.
1-
#100000
0"
01
#105000
1"
11
b1001 3
16
1'
10
#110000
0"
01
#115000
1"
11
b0 3
b1 4
06
1+
0'
0$
00
1/
#120000
0"
01
#125000
1"
11
b1 3
1'
10
#130000
0"
01
#135000
1"
11
b10 3
0'
1&
00
0/
1.
#140000
0"
01
#145000
1"
11
b11 3
1'
10
15
b0 3
b0 4
0+
0'
0&
00
0.
0-
05
#150000
0"
01
#155000
1"
11
b1 3
1'
10
#160000
0"
01
#165000
1"
11
b10 3
0'
1&
00
1/
#170000
0"
01
#175000
1"
11
b11 3
1'
10
#180000
0"
01
#185000
1"
11
b100 3
0'
0&
1%
00
0/
1.
#190000
0"
01
#195000
1"
11
b101 3
1'
10
#200000
0"
01
#205000
1"
11
b110 3
0'
1&
00
1/
#210000
0"
01
#215000
1"
11
b111 3
1'
10
#220000
0"
01
#225000
1"
11
b1000 3
0'
0&
0%
1$
00
0/
0.
1-
#230000
0"
01
#235000
1"
11
b1001 3
16
1'
10
#240000
0"
01
#245000
1"
11
b0 3
b1 4
06
1+
0'
0$
00
1/
#250000
0"
01
#255000
1"
11
b1 3
1'
10
#260000
0"
01
#265000
1"
11
b10 3
0'
1&
00
0/
1.
#270000
0"
01
#275000
1"
11
b11 3
1'
10
15
b0 3
b0 4
0+
0'
0&
00
0.
0-
05
#280000
0"
01
#285000
1"
11
b1 3
1'
10
#290000
0"
01
#295000
1"
11
b10 3
0'
1&
00
1/
#300000
0"
01
#305000
1"
11
b11 3
1'
10
#310000
0"
01
#315000
1"
11
b100 3
0'
0&
1%
00
0/
1.
