CID-Modulos/CID-BASIC/SD112-INTRO-VERILOG/SD112-Task-7/CID-SD112-A007.vcd
$date
	Fri Nov 14 15:58:21 2025
$end
$version
	Icarus Verilog
$end
$timescale
	1s
$end
$scope module debounce_tb $end
$var wire 1 ! result $end
$var parameter 32 " DELAY $end
$var reg 1 # button $end
$var reg 1 $ clk $end
$var reg 1 % reset $end
$scope module uut $end
$var wire 1 ! clean_out $end
$var wire 1 $ clk $end
$var wire 1 # noisy_in $end
$var wire 1 % rst $end
$var wire 1 & s_clear $end
$var parameter 32 ' COUNTER_MAX $end
$var parameter 32 ( COUNTER_WIDTH $end
$var reg 6 ) counter [5:0] $end
$var reg 1 * iDFF1 $end
$var reg 1 + iDFF2 $end
$var reg 1 , oDFF3 $end
$upscope $end
$upscope $end
$enddefinitions $end
$comment Show the parameter values. $end
$dumpall
b110 (
b1000000 '
b110010 "
$end
#0
$dumpvars
x,
x+
x*
bx )
x&
1%
0$
0#
x!
$end
#10
0&
0+
0*
b0 )
0!
0,
1$
#20
0$
#30
1$
#40
0$
#50
b1 )
1$
0%
#60
0$
#70
b10 )
1$
#80
0$
#90
b11 )
1$
#100
0$
#110
b100 )
1$
#120
0$
#130
b101 )
1$
#140
0$
#150
b110 )
1$
#160
0$
#170
b111 )
1$
#180
0$
#190
b1000 )
1$
#200
0$
#210
b1001 )
1$
#220
0$
#230
b1010 )
1$
#240
0$
#250
b1011 )
1$
#260
0$
#270
b1100 )
1$
#280
0$
#290
b1101 )
1$
#300
0$
#310
b1110 )
1$
#320
0$
#330
b1111 )
1$
#340
0$
#350
b10000 )
1$
#360
0$
#370
b10001 )
1$
#380
0$
#390
b10010 )
1$
#400
0$
#410
b10011 )
1$
#420
0$
#430
b10100 )
1$
#440
0$
#450
b10101 )
1$
#460
0$
#470
b10110 )
1$
#480
0$
#490
b10111 )
1$
#500
0$
#510
b11000 )
1$
#520
0$
#530
b11001 )
1$
#540
0$
#550
b11010 )
1$
#560
0$
#570
b11011 )
1$
#580
0$
#590
b11100 )
1$
#600
0$
#610
b11101 )
1$
#620
0$
#630
b11110 )
1$
#640
0$
#650
b11111 )
1$
#660
0$
#670
b100000 )
1$
