CID-Modulos/CID-BASIC/SD112-INTRO-VERILOG/SD112-Task-7/CID-SD112-A007-2.vcd
$date
	Fri Nov 14 16:20:15 2025
$end
$version
	Icarus Verilog
$end
$timescale
	1s
$end
$scope module debounce_64_tb $end
$var wire 1 ! result $end
$var parameter 32 " DELAY $end
$var reg 1 # button $end
$var reg 1 $ clk $end
$var reg 1 % reset $end
$scope module uut64 $end
$var wire 1 $ clk $end
$var wire 1 # noisy_in $end
$var reg 1 ! clean_out $end
$var reg 6 & counter [5:0] $end
$var reg 1 ' stable_state $end
$var reg 2 ( sync [1:0] $end
$upscope $end
$upscope $end
$enddefinitions $end
$comment Show the parameter values. $end
$dumpall
b110010 "
$end
#0
$dumpvars
bx (
x'
bx &
1%
0$
0#
x!
$end
#10
b0 &
bx0 (
1$
#20
0$
#30
b0 (
1$
#40
0$
#50
1$
0%
#60
0$
#70
1$
#80
0$
#90
1$
#100
0$
#110
1$
#120
0$
#130
1$
#140
0$
#150
1$
#160
0$
#170
1$
#180
0$
#190
1$
#200
0$
#210
1$
#220
0$
#230
1$
#240
0$
#250
1$
#260
0$
#270
1$
#280
0$
#290
1$
#300
0$
#310
1$
#320
0$
#330
1$
#340
0$
#350
1$
#360
0$
#370
1$
#380
0$
#390
1$
#400
0$
#410
1$
#420
0$
#430
1$
#440
0$
#450
1$
#460
0$
#470
1$
#480
0$
#490
1$
#500
0$
#510
1$
#520
0$
#530
1$
#540
0$
#550
1$
#560
0$
#570
1$
#580
0$
#590
1$
#600
0$
1#
#610
b1 (
1$
#620
0$
#630
b11 (
1$
#640
0$
#650
1$
#660
0$
#670
1$
#680
0$
#690
1$
#700
0$
#710
1$
#720
0$
#730
1$
#740
0$
#750
1$
#760
0$
#770
1$
#780
0$
#790
1$
#800
0$
0#
#810
b10 (
1$
#820
0$
#830
b0 (
1$
#840
0$
#850
b1 (
1$
1#
#860
0$
#870
b11 (
1$
#880
0$
#890
1$
#900
0$
#910
1$
#920
0$
#930
1$
#940
0$
#950
1$
#960
0$
#970
1$
#980
0$
#990
1$
#1000
0$
0#
#1010
b10 (
1$
#1020
0$
#1030
b0 (
1$
#1040
0$
#1050
1$
#1060
0$
#1070
1$
#1080
0$
#1090
1$
#1100
0$
1#
#1110
b1 (
1$
#1120
0$
#1130
b11 (
1$
