CIDI-Modulos/SD122-CIRC-DIGITAIS-I/SD122-Task-12/task-1/CIDI-SD122-A112-1.vcd
$date
	Fri Dec  5 15:55:43 2025
$end
$version
	Icarus Verilog
$end
$timescale
	1ps
$end
$scope module ula_tb $end
$var wire 4 ! resultado [3:0] $end
$var parameter 32 " DELAY $end
$var reg 4 # A [3:0] $end
$var reg 4 $ B [3:0] $end
$var reg 3 % seletor [2:0] $end
$scope module UUT $end
$var wire 4 & A [3:0] $end
$var wire 4 ' B [3:0] $end
$var wire 3 ( sel [2:0] $end
$var reg 4 ) resultado [3:0] $end
$upscope $end
$upscope $end
$enddefinitions $end
$comment Show the parameter values. $end
$dumpall
b1010 "
$end
#0
$dumpvars
b0 )
b0 (
b0 '
b0 &
b0 %
b0 $
b0 #
b0 !
$end
#10000
b1 $
b1 '
b10 #
b10 &
#20000
b1000 !
b1000 )
b1010 $
b1010 '
b1100 #
b1100 &
#30000
b111 !
b111 )
b1 %
b1 (
b11 $
b11 '
b101 #
b101 &
#40000
b1111 !
b1111 )
b1 $
b1 '
b1111 #
b1111 &
#50000
b1001 !
b1001 )
b1001 $
b1001 '
b1001 #
b1001 &
#60000
b1100 !
b1100 )
b10 %
b10 (
b1 $
b1 '
b11 #
b11 &
#70000
b1010 !
b1010 )
b101 $
b101 '
b101 #
b101 &
#80000
b0 !
b0 )
b1111 $
b1111 '
b1111 #
b1111 &
#90000
b1110 !
b1110 )
b11 %
b11 (
b101 $
b101 '
b11 #
b11 &
#100000
b111 !
b111 )
b1100 $
b1100 '
b1010 #
b1010 &
#110000
b1101 !
b1101 )
b11 $
b11 '
b110 #
b110 &
#120000
b1111 !
b1111 )
b100 %
b100 (
b0 $
b0 '
b1111 #
b1111 &
#130000
b1001 !
b1001 )
b1111 $
b1111 '
b1010 #
b1010 &
#140000
b1 !
b1 )
b1100 $
b1100 '
b101 #
b101 &
#150000
b1111 !
b1111 )
b101 %
b101 (
b10 $
b10 '
b1 #
b1 &
#160000
b1110 !
b1110 )
b1 $
b1 '
b1111 #
b1111 &
#170000
b1 !
b1 )
b111 $
b111 '
b1000 #
b1000 &
