CID-Modulos/CID-BASIC/VHDL/Task-8/waves/testbench_real_time_clock.vcd
$date
  Sun Dec 14 03:16:39 2025
$end
$version
  GHDL v0
$end
$timescale
  1 fs
$end
$scope module standard $end
$upscope $end
$scope module textio $end
$upscope $end
$scope module std_logic_1164 $end
$upscope $end
$scope module numeric_std $end
$upscope $end
$scope module testbench_real_time_clock $end
$var reg 1 ! tb_clk $end
$var reg 1 " tb_rst $end
$var reg 1 # tb_set $end
$var integer 32 $ tb_hour $end
$var integer 32 % tb_minute $end
$var integer 32 & tb_second $end
$scope module timer_instance $end
$var reg 1 ' clk $end
$var reg 1 ( rst $end
$var reg 1 ) set $end
$var integer 32 * init_hour $end
$var integer 32 + init_minute $end
$var integer 32 , init_second $end
$var integer 32 - hour $end
$var integer 32 . minute $end
$var integer 32 / second $end
$var integer 32 0 reg_ticks $end
$var integer 32 1 reg_hour $end
$var integer 32 2 reg_minute $end
$var integer 32 3 reg_second $end
$upscope $end
$upscope $end
$enddefinitions $end
#0
1!
1"
0#
b10000000000000000000000000000000 $
b10000000000000000000000000000000 %
b10000000000000000000000000000000 &
1'
1(
0)
b10101 *
b11110 +
b10111 ,
b10000000000000000000000000000000 -
b10000000000000000000000000000000 .
b10000000000000000000000000000000 /
b10000000000000000000000000000000 0
b10000000000000000000000000000000 1
b10000000000000000000000000000000 2
b10000000000000000000000000000000 3
#2500000
0!
0'
#5000000
1!
b0 $
b0 %
b0 &
1'
b0 -
b0 .
b0 /
b0 0
b0 1
b0 2
b0 3
#7500000
0!
0'
#10000000
1!
1'
#12500000
0!
0'
#15000000
1!
0"
1'
0(
#17500000
0!
0'
#20000000
1!
1'
b1 0
#22500000
0!
0'
#25000000
1!
1'
b10 0
#27500000
0!
0'
#30000000
1!
1'
b11 0
#32500000
0!
0'
#35000000
1!
1'
b100 0
#37500000
0!
0'
#40000000
1!
1'
b101 0
#42500000
0!
0'
#45000000
1!
1'
b110 0
#47500000
0!
0'
#50000000
1!
1'
b111 0
#52500000
0!
0'
#55000000
1!
1'
b1000 0
#57500000
0!
0'
#60000000
1!
1'
b1001 0
#62500000
0!
0'
#65000000
1!
1'
b1010 0
#67500000
0!
0'
#70000000
1!
1'
b1011 0
#72500000
0!
0'
#75000000
1!
1'
b1100 0
#77500000
0!
0'
#80000000
1!
1'
b1101 0
#82500000
0!
0'
#85000000
1!
1'
b1110 0
#87500000
0!
0'
#90000000
1!
1'
b1111 0
#92500000
0!
0'
#95000000
1!
1'
b10000 0
#97500000
0!
0'
#100000000
1!
1'
b10001 0
#102500000
0!
0'
#105000000
1!
1'
b10010 0
#107500000
0!
0'
#110000000
1!
1'
b10011 0
#112500000
0!
0'
#115000000
1!
b1 &
1'
b1 /
b0 0
b1 3
#117500000
0!
0'
#120000000
1!
1'
b1 0
#122500000
0!
0'
#125000000
1!
1'
b10 0
#127500000
0!
0'
#130000000
1!
1'
b11 0
#132500000
0!
0'
#135000000
1!
1'
b100 0
#137500000
0!
0'
#140000000
1!
1'
b101 0
#142500000
0!
0'
#145000000
1!
1'
b110 0
#147500000
0!
0'
#150000000
1!
1'
b111 0
#152500000
0!
0'
#155000000
1!
1'
b1000 0
#157500000
0!
0'
#160000000
1!
1'
b1001 0
#162500000
0!
0'
#165000000
1!
1'
b1010 0
#167500000
0!
0'
#170000000
1!
1'
b1011 0
#172500000
0!
0'
#175000000
1!
1'
b1100 0
#177500000
0!
0'
#180000000
1!
1'
b1101 0
#182500000
0!
0'
#185000000
1!
1'
b1110 0
#187500000
0!
0'
#190000000
1!
1'
b1111 0
#192500000
0!
0'
#195000000
1!
1'
b10000 0
#197500000
0!
0'
#200000000
1!
1'
b10001 0
#202500000
0!
0'
#205000000
1!
1'
b10010 0
#207500000
0!
0'
#210000000
1!
1'
b10011 0
#212500000
0!
0'
#215000000
1!
b10 &
1'
b10 /
b0 0
b10 3
#217500000
0!
0'
#220000000
1!
1'
b1 0
#222500000
0!
0'
#225000000
1!
1'
b10 0
#227500000
0!
0'
#230000000
1!
1'
b11 0
#232500000
0!
0'
#235000000
1!
1'
b100 0
#237500000
0!
0'
#240000000
1!
1'
b101 0
#242500000
0!
0'
#245000000
1!
1'
b110 0
#247500000
0!
0'
#250000000
1!
1'
b111 0
#252500000
0!
0'
#255000000
1!
1'
b1000 0
#257500000
0!
0'
#260000000
1!
1'
b1001 0
#262500000
0!
0'
#265000000
1!
1'
b1010 0
#267500000
0!
0'
#270000000
1!
1'
b1011 0
#272500000
0!
0'
#275000000
1!
1'
b1100 0
#277500000
0!
0'
#280000000
1!
1'
b1101 0
#282500000
0!
0'
#285000000
1!
1'
b1110 0
#287500000
0!
0'
#290000000
1!
1'
b1111 0
#292500000
0!
0'
#295000000
1!
1'
b10000 0
#297500000
0!
0'
#300000000
1!
1'
b10001 0
#302500000
0!
0'
#305000000
1!
1'
b10010 0
#307500000
0!
0'
#310000000
1!
1'
b10011 0
#312500000
0!
0'
#315000000
1!
b11 &
1'
b11 /
b0 0
b11 3
#317500000
0!
0'
#320000000
1!
1'
b1 0
#322500000
0!
0'
#325000000
1!
1'
b10 0
#327500000
0!
0'
#330000000
1!
1'
b11 0
#332500000
0!
0'
#335000000
1!
1'
b100 0
#337500000
0!
0'
#340000000
1!
1'
b101 0
#342500000
0!
0'
#345000000
1!
1'
b110 0
#347500000
0!
0'
#350000000
1!
1'
b111 0
#352500000
0!
0'
#355000000
1!
1'
b1000 0
#357500000
0!
0'
#360000000
1!
1'
b1001 0
#362500000
0!
0'
#365000000
1!
1'
b1010 0
#367500000
0!
0'
#370000000
1!
1'
b1011 0
#372500000
0!
0'
#375000000
1!
1'
b1100 0
#377500000
0!
0'
#380000000
1!
1'
b1101 0
#382500000
0!
0'
#385000000
1!
1'
b1110 0
#387500000
0!
0'
#390000000
1!
1'
b1111 0
#392500000
0!
0'
#395000000
1!
1'
b10000 0
#397500000
0!
0'
#400000000
1!
1'
b10001 0
#402500000
0!
0'
#405000000
1!
1'
b10010 0
#407500000
0!
0'
#410000000
1!
1'
b10011 0
#412500000
0!
0'
#415000000
1!
b100 &
1'
b100 /
b0 0
b100 3
#417500000
0!
0'
#420000000
1!
1'
b1 0
#422500000
0!
0'
#425000000
1!
1'
b10 0
#427500000
0!
0'
#430000000
1!
1'
b11 0
#432500000
0!
0'
#435000000
1!
1'
b100 0
#437500000
0!
0'
#440000000
1!
1'
b101 0
#442500000
0!
0'
#445000000
1!
1'
b110 0
#447500000
0!
0'
#450000000
1!
1'
b111 0
#452500000
0!
0'
#455000000
1!
1'
b1000 0
#457500000
0!
0'
#460000000
1!
1'
b1001 0
#462500000
0!
0'
#465000000
1!
1'
b1010 0
#467500000
0!
0'
#470000000
1!
1'
b1011 0
#472500000
0!
0'
#475000000
1!
1'
b1100 0
#477500000
0!
0'
#480000000
1!
1'
b1101 0
#482500000
0!
0'
#485000000
1!
1'
b1110 0
#487500000
0!
0'
#490000000
1!
1'
b1111 0
#492500000
0!
0'
#495000000
1!
1'
b10000 0
#497500000
0!
0'
#500000000
1!
1'
b10001 0
#502500000
0!
0'
#505000000
1!
1'
b10010 0
#507500000
0!
0'
#510000000
1!
1'
b10011 0
#512500000
0!
0'
#515000000
1!
b101 &
1'
b101 /
b0 0
b101 3
#517500000
0!
0'
#520000000
1!
1'
b1 0
#522500000
0!
0'
#525000000
1!
1'
b10 0
#527500000
0!
0'
#530000000
1!
1'
b11 0
#532500000
0!
0'
#535000000
1!
1'
b100 0
#537500000
0!
0'
#540000000
1!
1'
b101 0
#542500000
0!
0'
#545000000
1!
1'
b110 0
#547500000
0!
0'
#550000000
1!
1'
b111 0
#552500000
0!
0'
#555000000
1!
1'
b1000 0
#557500000
0!
0'
#560000000
1!
1'
b1001 0
#562500000
0!
0'
#565000000
1!
1'
b1010 0
#567500000
0!
0'
#570000000
1!
1'
b1011 0
#572500000
0!
0'
#575000000
1!
1'
b1100 0
#577500000
0!
0'
#580000000
1!
1'
b1101 0
#582500000
0!
0'
#585000000
1!
1'
b1110 0
#587500000
0!
0'
#590000000
1!
1'
b1111 0
#592500000
0!
0'
#595000000
1!
1'
b10000 0
#597500000
0!
0'
#600000000
1!
1'
b10001 0
#602500000
0!
0'
#605000000
1!
1'
b10010 0
#607500000
0!
0'
#610000000
1!
1'
b10011 0
#612500000
0!
0'
#615000000
1!
b110 &
1'
b110 /
b0 0
b110 3
#617500000
0!
0'
#620000000
1!
1'
b1 0
#622500000
0!
0'
#625000000
1!
1'
b10 0
#627500000
0!
0'
#630000000
1!
1'
b11 0
#632500000
0!
0'
#635000000
1!
1'
b100 0
#637500000
0!
0'
#640000000
1!
1'
b101 0
#642500000
0!
0'
#645000000
1!
1'
b110 0
#647500000
0!
0'
#650000000
1!
1'
b111 0
#652500000
0!
0'
#655000000
1!
1'
b1000 0
#657500000
0!
0'
#660000000
1!
1'
b1001 0
#662500000
0!
0'
#665000000
1!
1'
b1010 0
#667500000
0!
0'
#670000000
1!
1'
b1011 0
#672500000
0!
0'
#675000000
1!
1'
b1100 0
#677500000
0!
0'
#680000000
1!
1'
b1101 0
#682500000
0!
0'
#685000000
1!
1'
b1110 0
#687500000
0!
0'
#690000000
1!
1'
b1111 0
#692500000
0!
0'
#695000000
1!
1'
b10000 0
#697500000
0!
0'
#700000000
1!
1'
b10001 0
#702500000
0!
0'
#705000000
1!
1'
b10010 0
#707500000
0!
0'
#710000000
1!
1'
b10011 0
#712500000
0!
0'
#715000000
1!
b111 &
1'
b111 /
b0 0
b111 3
#717500000
0!
0'
#720000000
1!
1'
b1 0
#722500000
0!
0'
#725000000
1!
1'
b10 0
#727500000
0!
0'
#730000000
1!
1'
b11 0
#732500000
0!
0'
#735000000
1!
1'
b100 0
#737500000
0!
0'
#740000000
1!
1'
b101 0
#742500000
0!
0'
#745000000
1!
1'
b110 0
#747500000
0!
0'
#750000000
1!
1'
b111 0
#752500000
0!
0'
#755000000
1!
1'
b1000 0
#757500000
0!
0'
#760000000
1!
1'
b1001 0
#762500000
0!
0'
#765000000
1!
1'
b1010 0
#767500000
0!
0'
#770000000
1!
1'
b1011 0
#772500000
0!
0'
#775000000
1!
1'
b1100 0
#777500000
0!
0'
#780000000
1!
1'
b1101 0
#782500000
0!
0'
#785000000
1!
1'
b1110 0
#787500000
0!
0'
#790000000
1!
1'
b1111 0
#792500000
0!
0'
#795000000
1!
1'
b10000 0
#797500000
0!
0'
#800000000
1!
1'
b10001 0
#802500000
0!
0'
#805000000
1!
1'
b10010 0
#807500000
0!
0'
#810000000
1!
1'
b10011 0
#812500000
0!
0'
#815000000
1!
b1000 &
1'
b1000 /
b0 0
b1000 3
#817500000
0!
0'
#820000000
1!
1'
b1 0
#822500000
0!
0'
#825000000
1!
1'
b10 0
#827500000
0!
0'
#830000000
1!
1'
b11 0
#832500000
0!
0'
#835000000
1!
1'
b100 0
#837500000
0!
0'
#840000000
1!
1'
b101 0
#842500000
0!
0'
#845000000
1!
1'
b110 0
#847500000
0!
0'
#850000000
1!
1'
b111 0
#852500000
0!
0'
#855000000
1!
1'
b1000 0
#857500000
0!
0'
#860000000
1!
1'
b1001 0
#862500000
0!
0'
#865000000
1!
1'
b1010 0
#867500000
0!
0'
#870000000
1!
1'
b1011 0
#872500000
0!
0'
#875000000
1!
1'
b1100 0
#877500000
0!
0'
#880000000
1!
1'
b1101 0
#882500000
0!
0'
#885000000
1!
1'
b1110 0
#887500000
0!
0'
#890000000
1!
1'
b1111 0
#892500000
0!
0'
#895000000
1!
1'
b10000 0
#897500000
0!
0'
#900000000
1!
1'
b10001 0
#902500000
0!
0'
#905000000
1!
1'
b10010 0
#907500000
0!
0'
#910000000
1!
1'
b10011 0
#912500000
0!
0'
#915000000
1!
b1001 &
1'
b1001 /
b0 0
b1001 3
#917500000
0!
0'
#920000000
1!
1'
b1 0
#922500000
0!
0'
#925000000
1!
1'
b10 0
#927500000
0!
0'
#930000000
1!
1'
b11 0
#932500000
0!
0'
#935000000
1!
1'
b100 0
#937500000
0!
0'
#940000000
1!
1'
b101 0
#942500000
0!
0'
#945000000
1!
1'
b110 0
#947500000
0!
0'
#950000000
1!
1'
b111 0
#952500000
0!
0'
#955000000
1!
1'
b1000 0
#957500000
0!
0'
#960000000
1!
1'
b1001 0
#962500000
0!
0'
#965000000
1!
1'
b1010 0
#967500000
0!
0'
#970000000
1!
1'
b1011 0
#972500000
0!
0'
#975000000
1!
1'
b1100 0
#977500000
0!
0'
#980000000
1!
1'
b1101 0
#982500000
0!
0'
#985000000
1!
1'
b1110 0
#987500000
0!
0'
#990000000
1!
1'
b1111 0
#992500000
0!
0'
#995000000
1!
1'
b10000 0
#997500000
0!
0'
#1000000000
1!
1'
b10001 0
#1002500000
0!
0'
#1005000000
1!
1'
b10010 0
#1007500000
0!
0'
#1010000000
1!
1'
b10011 0
#1012500000
0!
0'
#1015000000
1!
b1010 &
1'
b1010 /
b0 0
b1010 3
#1017500000
0!
0'
#1020000000
1!
1'
b1 0
#1022500000
0!
0'
#1025000000
1!
1'
b10 0
#1027500000
0!
0'
#1030000000
1!
1'
b11 0
#1032500000
0!
0'
#1035000000
1!
1'
b100 0
#1037500000
0!
0'
#1040000000
1!
1'
b101 0
#1042500000
0!
0'
#1045000000
1!
1'
b110 0
#1047500000
0!
0'
#1050000000
1!
1'
b111 0
#1052500000
0!
0'
#1055000000
1!
1'
b1000 0
#1057500000
0!
0'
#1060000000
1!
1'
b1001 0
#1062500000
0!
0'
#1065000000
1!
1'
b1010 0
#1067500000
0!
0'
#1070000000
1!
1'
b1011 0
#1072500000
0!
0'
#1075000000
1!
1'
b1100 0
#1077500000
0!
0'
#1080000000
1!
1'
b1101 0
#1082500000
0!
0'
#1085000000
1!
1'
b1110 0
#1087500000
0!
0'
#1090000000
1!
1'
b1111 0
#1092500000
0!
0'
#1095000000
1!
1'
b10000 0
#1097500000
0!
0'
#1100000000
1!
1'
b10001 0
#1102500000
0!
0'
#1105000000
1!
1'
b10010 0
#1107500000
0!
0'
#1110000000
1!
1'
b10011 0
#1112500000
0!
0'
#1115000000
1!
b1011 &
1'
b1011 /
b0 0
b1011 3
#1117500000
0!
0'
#1120000000
1!
1'
b1 0
#1122500000
0!
0'
#1125000000
1!
1'
b10 0
#1127500000
0!
0'
#1130000000
1!
1'
b11 0
#1132500000
0!
0'
#1135000000
1!
1'
b100 0
#1137500000
0!
0'
#1140000000
1!
1'
b101 0
#1142500000
0!
0'
#1145000000
1!
1'
b110 0
#1147500000
0!
0'
#1150000000
1!
1'
b111 0
#1152500000
0!
0'
#1155000000
1!
1'
b1000 0
#1157500000
0!
0'
#1160000000
1!
1'
b1001 0
#1162500000
0!
0'
#1165000000
1!
1'
b1010 0
#1167500000
0!
0'
#1170000000
1!
1'
b1011 0
#1172500000
0!
0'
#1175000000
1!
1'
b1100 0
#1177500000
0!
0'
#1180000000
1!
1'
b1101 0
#1182500000
0!
0'
#1185000000
1!
1'
b1110 0
#1187500000
0!
0'
#1190000000
1!
1'
b1111 0
#1192500000
0!
0'
#1195000000
1!
1'
b10000 0
#1197500000
0!
0'
#1200000000
1!
1'
b10001 0
#1202500000
0!
0'
#1205000000
1!
1'
b10010 0
#1207500000
0!
0'
#1210000000
1!
1'
b10011 0
#1212500000
0!
0'
#1215000000
1!
b1100 &
1'
b1100 /
b0 0
b1100 3
#1217500000
0!
0'
#1220000000
1!
1'
b1 0
#1222500000
0!
0'
#1225000000
1!
1'
b10 0
#1227500000
0!
0'
#1230000000
1!
1'
b11 0
#1232500000
0!
0'
#1235000000
1!
1'
b100 0
#1237500000
0!
0'
#1240000000
1!
1'
b101 0
#1242500000
0!
0'
#1245000000
1!
1'
b110 0
#1247500000
0!
0'
#1250000000
1!
1'
b111 0
#1252500000
0!
0'
#1255000000
1!
1'
b1000 0
#1257500000
0!
0'
#1260000000
1!
1'
b1001 0
#1262500000
0!
0'
#1265000000
1!
1'
b1010 0
#1267500000
0!
0'
#1270000000
1!
1'
b1011 0
#1272500000
0!
0'
#1275000000
1!
1'
b1100 0
#1277500000
0!
0'
#1280000000
1!
1'
b1101 0
#1282500000
0!
0'
#1285000000
1!
1'
b1110 0
#1287500000
0!
0'
#1290000000
1!
1'
b1111 0
#1292500000
0!
0'
#1295000000
1!
1'
b10000 0
#1297500000
0!
0'
#1300000000
1!
1'
b10001 0
#1302500000
0!
0'
#1305000000
1!
1'
b10010 0
#1307500000
0!
0'
#1310000000
1!
1'
b10011 0
#1312500000
0!
0'
#1315000000
1!
b1101 &
1'
b1101 /
b0 0
b1101 3
#1317500000
0!
0'
#1320000000
1!
1'
b1 0
#1322500000
0!
0'
#1325000000
1!
1'
b10 0
#1327500000
0!
0'
#1330000000
1!
1'
b11 0
#1332500000
0!
0'
#1335000000
1!
1'
b100 0
#1337500000
0!
0'
#1340000000
1!
1'
b101 0
#1342500000
0!
0'
#1345000000
1!
1'
b110 0
#1347500000
0!
0'
#1350000000
1!
1'
b111 0
#1352500000
0!
0'
#1355000000
1!
1'
b1000 0
#1357500000
0!
0'
#1360000000
1!
1'
b1001 0
#1362500000
0!
0'
#1365000000
1!
1'
b1010 0
#1367500000
0!
0'
#1370000000
1!
1'
b1011 0
#1372500000
0!
0'
#1375000000
1!
1'
b1100 0
#1377500000
0!
0'
#1380000000
1!
1'
b1101 0
#1382500000
0!
0'
#1385000000
1!
1'
b1110 0
#1387500000
0!
0'
#1390000000
1!
1'
b1111 0
#1392500000
0!
0'
#1395000000
1!
1'
b10000 0
#1397500000
0!
0'
#1400000000
1!
1'
b10001 0
#1402500000
0!
0'
#1405000000
1!
1'
b10010 0
#1407500000
0!
0'
#1410000000
1!
1'
b10011 0
#1412500000
0!
0'
#1415000000
1!
b1110 &
1'
b1110 /
b0 0
b1110 3
#1417500000
0!
0'
#1420000000
1!
1'
b1 0
#1422500000
0!
0'
#1425000000
1!
1'
b10 0
#1427500000
0!
0'
#1430000000
1!
1'
b11 0
#1432500000
0!
0'
#1435000000
1!
1'
b100 0
#1437500000
0!
0'
#1440000000
1!
1'
b101 0
#1442500000
0!
0'
#1445000000
1!
1'
b110 0
#1447500000
0!
0'
#1450000000
1!
1'
b111 0
#1452500000
0!
0'
#1455000000
1!
1'
b1000 0
#1457500000
0!
0'
#1460000000
1!
1'
b1001 0
#1462500000
0!
0'
#1465000000
1!
1'
b1010 0
#1467500000
0!
0'
#1470000000
1!
1'
b1011 0
#1472500000
0!
0'
#1475000000
1!
1'
b1100 0
#1477500000
0!
0'
#1480000000
1!
1'
b1101 0
#1482500000
0!
0'
#1485000000
1!
1'
b1110 0
#1487500000
0!
0'
#1490000000
1!
1'
b1111 0
#1492500000
0!
0'
#1495000000
1!
1'
b10000 0
#1497500000
0!
0'
#1500000000
1!
1'
b10001 0
#1502500000
0!
0'
#1505000000
1!
1#
1'
1)
b10010 0
#1507500000
0!
0'
#1510000000
1!
0#
b10101 $
b11110 %
b10111 &
1'
0)
b10101 -
b11110 .
b10111 /
b0 0
b10101 1
b11110 2
b10111 3
#1512500000
0!
0'
#1515000000
1!
1'
b1 0
#1517500000
0!
0'
#1520000000
1!
1'
b10 0
#1522500000
0!
0'
#1525000000
1!
1'
b11 0
#1527500000
0!
0'
#1530000000
1!
1'
b100 0
#1532500000
0!
0'
#1535000000
1!
1'
b101 0
#1537500000
0!
0'
#1540000000
1!
1'
b110 0
#1542500000
0!
0'
#1545000000
1!
1'
b111 0
#1547500000
0!
0'
#1550000000
1!
1'
b1000 0
#1552500000
0!
0'
#1555000000
1!
1'
b1001 0
#1557500000
0!
0'
#1560000000
1!
1'
b1010 0
#1562500000
0!
0'
#1565000000
1!
1'
b1011 0
#1567500000
0!
0'
#1570000000
1!
1'
b1100 0
#1572500000
0!
0'
#1575000000
1!
1'
b1101 0
#1577500000
0!
0'
#1580000000
1!
1'
b1110 0
#1582500000
0!
0'
#1585000000
1!
1'
b1111 0
#1587500000
0!
0'
#1590000000
1!
1'
b10000 0
#1592500000
0!
0'
#1595000000
1!
1'
b10001 0
#1597500000
0!
0'
#1600000000
1!
1'
b10010 0
#1602500000
0!
0'
#1605000000
1!
1'
b10011 0
#1607500000
0!
0'
#1610000000
1!
b11000 &
1'
b11000 /
b0 0
b11000 3
#1612500000
0!
0'
#1615000000
1!
1'
b1 0
#1617500000
0!
0'
#1620000000
1!
1'
b10 0
#1622500000
0!
0'
#1625000000
1!
1'
b11 0
#1627500000
0!
0'
#1630000000
1!
1'
b100 0
#1632500000
0!
0'
#1635000000
1!
1'
b101 0
#1637500000
0!
0'
#1640000000
1!
1'
b110 0
#1642500000
0!
0'
#1645000000
1!
1'
b111 0
#1647500000
0!
0'
#1650000000
1!
1'
b1000 0
#1652500000
0!
0'
#1655000000
1!
1'
b1001 0
#1657500000
0!
0'
#1660000000
1!
1'
b1010 0
#1662500000
0!
0'
#1665000000
1!
1'
b1011 0
#1667500000
0!
0'
#1670000000
1!
1'
b1100 0
#1672500000
0!
0'
#1675000000
1!
1'
b1101 0
#1677500000
0!
0'
#1680000000
1!
1'
b1110 0
#1682500000
0!
0'
#1685000000
1!
1'
b1111 0
#1687500000
0!
0'
#1690000000
1!
1'
b10000 0
#1692500000
0!
0'
#1695000000
1!
1'
b10001 0
#1697500000
0!
0'
#1700000000
1!
1'
b10010 0
#1702500000
0!
0'
#1705000000
1!
1'
b10011 0
#1707500000
0!
0'
#1710000000
1!
b11001 &
1'
b11001 /
b0 0
b11001 3
#1712500000
0!
0'
#1715000000
1!
1'
b1 0
#1717500000
0!
0'
#1720000000
1!
1'
b10 0
#1722500000
0!
0'
#1725000000
1!
1'
b11 0
#1727500000
0!
0'
#1730000000
1!
1'
b100 0
#1732500000
0!
0'
#1735000000
1!
1'
b101 0
#1737500000
0!
0'
#1740000000
1!
1'
b110 0
#1742500000
0!
0'
#1745000000
1!
1'
b111 0
#1747500000
0!
0'
#1750000000
1!
1'
b1000 0
#1752500000
0!
0'
#1755000000
1!
1'
b1001 0
#1757500000
0!
0'
#1760000000
1!
1'
b1010 0
#1762500000
0!
0'
#1765000000
1!
1'
b1011 0
#1767500000
0!
0'
#1770000000
1!
1'
b1100 0
#1772500000
0!
0'
#1775000000
1!
1'
b1101 0
#1777500000
0!
0'
#1780000000
1!
1'
b1110 0
#1782500000
0!
0'
#1785000000
1!
1'
b1111 0
#1787500000
0!
0'
#1790000000
1!
1'
b10000 0
#1792500000
0!
0'
#1795000000
1!
1'
b10001 0
#1797500000
0!
0'
#1800000000
1!
1'
b10010 0
#1802500000
0!
0'
#1805000000
1!
1'
b10011 0
#1807500000
0!
0'
#1810000000
1!
b11010 &
1'
b11010 /
b0 0
b11010 3
#1812500000
0!
0'
#1815000000
1!
1'
b1 0
#1817500000
0!
0'
#1820000000
1!
1'
b10 0
#1822500000
0!
0'
#1825000000
1!
1'
b11 0
#1827500000
0!
0'
#1830000000
1!
1'
b100 0
#1832500000
0!
0'
#1835000000
1!
1'
b101 0
#1837500000
0!
0'
#1840000000
1!
1'
b110 0
#1842500000
0!
0'
#1845000000
1!
1'
b111 0
#1847500000
0!
0'
#1850000000
1!
1'
b1000 0
#1852500000
0!
0'
#1855000000
1!
1'
b1001 0
#1857500000
0!
0'
#1860000000
1!
1'
b1010 0
#1862500000
0!
0'
#1865000000
1!
1'
b1011 0
#1867500000
0!
0'
#1870000000
1!
1'
b1100 0
#1872500000
0!
0'
#1875000000
1!
1'
b1101 0
#1877500000
0!
0'
#1880000000
1!
1'
b1110 0
#1882500000
0!
0'
#1885000000
1!
1'
b1111 0
#1887500000
0!
0'
#1890000000
1!
1'
b10000 0
#1892500000
0!
0'
#1895000000
1!
1'
b10001 0
#1897500000
0!
0'
#1900000000
1!
1'
b10010 0
#1902500000
0!
0'
#1905000000
1!
1'
b10011 0
#1907500000
0!
0'
#1910000000
1!
b11011 &
1'
b11011 /
b0 0
b11011 3
#1912500000
0!
0'
#1915000000
1!
1'
b1 0
#1917500000
0!
0'
#1920000000
1!
1'
b10 0
#1922500000
0!
0'
#1925000000
1!
1'
b11 0
#1927500000
0!
0'
#1930000000
1!
1'
b100 0
#1932500000
0!
0'
#1935000000
1!
1'
b101 0
#1937500000
0!
0'
#1940000000
1!
1'
b110 0
#1942500000
0!
0'
#1945000000
1!
1'
b111 0
#1947500000
0!
0'
#1950000000
1!
1'
b1000 0
#1952500000
0!
0'
#1955000000
1!
1'
b1001 0
#1957500000
0!
0'
#1960000000
1!
1'
b1010 0
#1962500000
0!
0'
#1965000000
1!
1'
b1011 0
#1967500000
0!
0'
#1970000000
1!
1'
b1100 0
#1972500000
0!
0'
#1975000000
1!
1'
b1101 0
#1977500000
0!
0'
#1980000000
1!
1'
b1110 0
#1982500000
0!
0'
#1985000000
1!
1'
b1111 0
#1987500000
0!
0'
#1990000000
1!
1'
b10000 0
#1992500000
0!
0'
#1995000000
1!
1'
b10001 0
#1997500000
0!
0'
#2000000000
1!
1'
b10010 0
